2012,"25975000.00",servicos
2013,"28346000.00",servicos
2014,"33119000.00",servicos
2015,"32896000.00",servicos
2016,"34939000.00",servicos
2017,"37057000.00",servicos
2018,"39815000.00",servicos
2019,"39805000.00",servicos
2020,"37705000.00",servicos
2021,"41839000.00",servicos
